rgb2/simulation/qsim/shiba.msim.vcd
$comment
	File created using the following command:
		vcd file shiba.msim.vcd -direction
$end
$date
	Wed Mar 17 12:44:05 2021
$end
$version
	ModelSim Version 10.1d
$end
$timescale
	1ps
$end
$scope module register_vlg_vec_tst $end
$var reg 1 ! clk $end
$var wire 1 " out [31] $end
$var wire 1 # out [30] $end
$var wire 1 $ out [29] $end
$var wire 1 % out [28] $end
$var wire 1 & out [27] $end
$var wire 1 ' out [26] $end
$var wire 1 ( out [25] $end
$var wire 1 ) out [24] $end
$var wire 1 * out [23] $end
$var wire 1 + out [22] $end
$var wire 1 , out [21] $end
$var wire 1 - out [20] $end
$var wire 1 . out [19] $end
$var wire 1 / out [18] $end
$var wire 1 0 out [17] $end
$var wire 1 1 out [16] $end
$var wire 1 2 out [15] $end
$var wire 1 3 out [14] $end
$var wire 1 4 out [13] $end
$var wire 1 5 out [12] $end
$var wire 1 6 out [11] $end
$var wire 1 7 out [10] $end
$var wire 1 8 out [9] $end
$var wire 1 9 out [8] $end
$var wire 1 : out [7] $end
$var wire 1 ; out [6] $end
$var wire 1 < out [5] $end
$var wire 1 = out [4] $end
$var wire 1 > out [3] $end
$var wire 1 ? out [2] $end
$var wire 1 @ out [1] $end
$var wire 1 A out [0] $end
$var wire 1 B sampler $end
$scope module i1 $end
$var wire 1 C gnd $end
$var wire 1 D vcc $end
$var wire 1 E unknown $end
$var tri1 1 F devclrn $end
$var tri1 1 G devpor $end
$var tri1 1 H devoe $end
$var wire 1 I clk~combout $end
$var wire 1 J out[0]~93_combout $end
$var wire 1 K out[0]~reg0_regout $end
$var wire 1 L out[1]~31_combout $end
$var wire 1 M out[1]~reg0_regout $end
$var wire 1 N out[1]~32 $end
$var wire 1 O out[2]~33_combout $end
$var wire 1 P out[2]~reg0_regout $end
$var wire 1 Q out[2]~34 $end
$var wire 1 R out[3]~35_combout $end
$var wire 1 S out[3]~reg0_regout $end
$var wire 1 T out[3]~36 $end
$var wire 1 U out[4]~37_combout $end
$var wire 1 V out[4]~reg0_regout $end
$var wire 1 W out[4]~38 $end
$var wire 1 X out[5]~39_combout $end
$var wire 1 Y out[5]~reg0_regout $end
$var wire 1 Z out[5]~40 $end
$var wire 1 [ out[6]~41_combout $end
$var wire 1 \ out[6]~reg0_regout $end
$var wire 1 ] out[6]~42 $end
$var wire 1 ^ out[7]~43_combout $end
$var wire 1 _ out[7]~reg0_regout $end
$var wire 1 ` out[7]~44 $end
$var wire 1 a out[8]~45_combout $end
$var wire 1 b out[8]~reg0_regout $end
$var wire 1 c out[8]~46 $end
$var wire 1 d out[9]~47_combout $end
$var wire 1 e out[9]~reg0_regout $end
$var wire 1 f out[9]~48 $end
$var wire 1 g out[10]~49_combout $end
$var wire 1 h out[10]~reg0_regout $end
$var wire 1 i out[10]~50 $end
$var wire 1 j out[11]~51_combout $end
$var wire 1 k out[11]~reg0_regout $end
$var wire 1 l out[11]~52 $end
$var wire 1 m out[12]~53_combout $end
$var wire 1 n out[12]~reg0_regout $end
$var wire 1 o out[12]~54 $end
$var wire 1 p out[13]~55_combout $end
$var wire 1 q out[13]~reg0_regout $end
$var wire 1 r out[13]~56 $end
$var wire 1 s out[14]~57_combout $end
$var wire 1 t out[14]~reg0_regout $end
$var wire 1 u out[14]~58 $end
$var wire 1 v out[15]~59_combout $end
$var wire 1 w out[15]~reg0_regout $end
$var wire 1 x out[15]~60 $end
$var wire 1 y out[16]~61_combout $end
$var wire 1 z out[16]~reg0_regout $end
$var wire 1 { out[16]~62 $end
$var wire 1 | out[17]~63_combout $end
$var wire 1 } out[17]~reg0_regout $end
$var wire 1 ~ out[17]~64 $end
$var wire 1 !! out[18]~65_combout $end
$var wire 1 "! out[18]~reg0_regout $end
$var wire 1 #! out[18]~66 $end
$var wire 1 $! out[19]~67_combout $end
$var wire 1 %! out[19]~reg0_regout $end
$var wire 1 &! out[19]~68 $end
$var wire 1 '! out[20]~69_combout $end
$var wire 1 (! out[20]~reg0_regout $end
$var wire 1 )! out[20]~70 $end
$var wire 1 *! out[21]~71_combout $end
$var wire 1 +! out[21]~reg0_regout $end
$var wire 1 ,! out[21]~72 $end
$var wire 1 -! out[22]~73_combout $end
$var wire 1 .! out[22]~reg0_regout $end
$var wire 1 /! out[22]~74 $end
$var wire 1 0! out[23]~75_combout $end
$var wire 1 1! out[23]~reg0_regout $end
$var wire 1 2! out[23]~76 $end
$var wire 1 3! out[24]~77_combout $end
$var wire 1 4! out[24]~reg0_regout $end
$var wire 1 5! out[24]~78 $end
$var wire 1 6! out[25]~79_combout $end
$var wire 1 7! out[25]~reg0_regout $end
$var wire 1 8! out[25]~80 $end
$var wire 1 9! out[26]~81_combout $end
$var wire 1 :! out[26]~reg0_regout $end
$var wire 1 ;! out[26]~82 $end
$var wire 1 <! out[27]~83_combout $end
$var wire 1 =! out[27]~reg0_regout $end
$var wire 1 >! out[27]~84 $end
$var wire 1 ?! out[28]~85_combout $end
$var wire 1 @! out[28]~reg0_regout $end
$var wire 1 A! out[28]~86 $end
$var wire 1 B! out[29]~87_combout $end
$var wire 1 C! out[29]~reg0_regout $end
$var wire 1 D! out[29]~88 $end
$var wire 1 E! out[30]~89_combout $end
$var wire 1 F! out[30]~reg0_regout $end
$var wire 1 G! out[30]~90 $end
$var wire 1 H! out[31]~91_combout $end
$var wire 1 I! out[31]~reg0_regout $end
$upscope $end
$upscope $end
$enddefinitions $end
#0
$dumpvars
0!
0A
0@
0?
0>
0=
0<
0;
0:
09
08
07
06
05
04
03
02
01
00
0/
0.
0-
0,
0+
0*
0)
0(
0'
0&
0%
0$
0#
0"
xB
0C
1D
xE
1F
1G
1H
0I
1J
0K
0L
0M
0N
0O
0P
1Q
0R
0S
0T
0U
0V
1W
0X
0Y
0Z
0[
0\
1]
0^
0_
0`
0a
0b
1c
0d
0e
0f
0g
0h
1i
0j
0k
0l
0m
0n
1o
0p
0q
0r
0s
0t
1u
0v
0w
0x
0y
0z
1{
0|
0}
0~
0!!
0"!
1#!
0$!
0%!
0&!
0'!
0(!
1)!
0*!
0+!
0,!
0-!
0.!
1/!
00!
01!
02!
03!
04!
15!
06!
07!
08!
09!
0:!
1;!
0<!
0=!
0>!
0?!
0@!
1A!
0B!
0C!
0D!
0E!
0F!
1G!
0H!
0I!
$end
#10000
1!
1I
0B
1K
1L
0J
1A
#20000
0!
0I
1B
#30000
1!
1I
0B
1M
0K
1J
1@
0A
#40000
0!
0I
1B
#50000
1!
1I
0B
1K
1N
0L
0J
1A
1O
#60000
0!
0I
1B
#70000
1!
1I
0B
1P
0M
0K
0Q
0O
0N
1J
1?
0@
0A
1R
1Q
1O
0R
#80000
0!
0I
1B
#90000
1!
1I
0B
1K
1L
0J
1A
#100000
0!
0I
1B
#110000
1!
1I
0B
1M
0K
1J
1@
0A
#120000
0!
0I
1B
#130000
1!
1I
0B
1K
1N
0L
0J
1A
0Q
0O
1R
#140000
0!
0I
1B
#150000
1!
1I
0B
1S
0P
0M
0K
1T
0R
1Q
1O
0N
1J
1>
0?
0@
0A
1U
0T
1R
0O
0U
#160000
0!
0I
1B
#170000
1!
1I
0B
1K
1L
0J
1A
#180000
0!
0I
1B
#190000
1!
1I
0B
1M
0K
1J
1@
0A
#200000
0!
0I
1B
#210000
1!
1I
0B
1K
1N
0L
0J
1A
1O
#220000
0!
0I
1B
#230000
1!
1I
0B
1P
0M
0K
0Q
0O
0N
1J
1?
0@
0A
1T
0R
1Q
1O
1U
0T
1R
0U
#240000
0!
0I
1B
#250000
1!
1I
0B
1K
1L
0J
1A
#260000
0!
0I
1B
#270000
1!
1I
0B
1M
0K
1J
1@
0A
#280000
0!
0I
1B
#290000
1!
1I
0B
1K
1N
0L
0J
1A
0Q
0O
1T
0R
1U
#300000
0!
0I
1B
#310000
1!
1I
0B
1V
0S
0P
0M
0K
0W
0U
0T
1R
1Q
1O
0N
1J
1=
0>
0?
0@
0A
1X
1W
1U
0R
0O
0X
#320000
0!
0I
1B
#330000
1!
1I
0B
1K
1L
0J
1A
#340000
0!
0I
1B
#350000
1!
1I
0B
1M
0K
1J
1@
0A
#360000
0!
0I
1B
#370000
1!
1I
0B
1K
1N
0L
0J
1A
1O
#380000
0!
0I
1B
#390000
1!
1I
0B
1P
0M
0K
0Q
0O
0N
1J
1?
0@
0A
1R
1Q
1O
0R
#400000
0!
0I
1B
#410000
1!
1I
0B
1K
1L
0J
1A
#420000
0!
0I
1B
#430000
1!
1I
0B
1M
0K
1J
1@
0A
#440000
0!
0I
1B
#450000
1!
1I
0B
1K
1N
0L
0J
1A
0Q
0O
1R
#460000
0!
0I
1B
#470000
1!
1I
0B
1S
0P
0M
0K
1T
0R
1Q
1O
0N
1J
1>
0?
0@
0A
0W
0U
0T
1R
0O
1X
1W
1U
0X
#480000
0!
0I
1B
#490000
1!
1I
0B
1K
1L
0J
1A
#500000
0!
0I
1B
#510000
1!
1I
0B
1M
0K
1J
1@
0A
#520000
0!
0I
1B
#530000
1!
1I
0B
1K
1N
0L
0J
1A
1O
#540000
0!
0I
1B
#550000
1!
1I
0B
1P
0M
0K
0Q
0O
0N
1J
1?
0@
0A
1T
0R
1Q
1O
0W
0U
0T
1R
1X
1W
1U
0X
#560000
0!
0I
1B
#570000
1!
1I
0B
1K
1L
0J
1A
#580000
0!
0I
1B
#590000
1!
1I
0B
1M
0K
1J
1@
0A
#600000
0!
0I
1B
#610000
1!
1I
0B
1K
1N
0L
0J
1A
0Q
0O
1T
0R
0W
0U
1X
#620000
0!
0I
1B
#630000
1!
1I
0B
1Y
0V
0S
0P
0M
0K
1Z
0X
1W
1U
0T
1R
1Q
1O
0N
1J
1<
0=
0>
0?
0@
0A
1[
0Z
1X
0U
0R
0O
0[
#640000
0!
0I
1B
#650000
1!
1I
0B
1K
1L
0J
1A
#660000
0!
0I
1B
#670000
1!
1I
0B
1M
0K
1J
1@
0A
#680000
0!
0I
1B
#690000
1!
1I
0B
1K
1N
0L
0J
1A
1O
#700000
0!
0I
1B
#710000
1!
1I
0B
1P
0M
0K
0Q
0O
0N
1J
1?
0@
0A
1R
1Q
1O
0R
#720000
0!
0I
1B
#730000
1!
1I
0B
1K
1L
0J
1A
#740000
0!
0I
1B
#750000
1!
1I
0B
1M
0K
1J
1@
0A
#760000
0!
0I
1B
#770000
1!
1I
0B
1K
1N
0L
0J
1A
0Q
0O
1R
#780000
0!
0I
1B
#790000
1!
1I
0B
1S
0P
0M
0K
1T
0R
1Q
1O
0N
1J
1>
0?
0@
0A
1U
0T
1R
0O
0U
#800000
0!
0I
1B
#810000
1!
1I
0B
1K
1L
0J
1A
#820000
0!
0I
1B
#830000
1!
1I
0B
1M
0K
1J
1@
0A
#840000
0!
0I
1B
#850000
1!
1I
0B
1K
1N
0L
0J
1A
1O
#860000
0!
0I
1B
#870000
1!
1I
0B
1P
0M
0K
0Q
0O
0N
1J
1?
0@
0A
1T
0R
1Q
1O
1U
0T
1R
0U
#880000
0!
0I
1B
#890000
1!
1I
0B
1K
1L
0J
1A
#900000
0!
0I
1B
#910000
1!
1I
0B
1M
0K
1J
1@
0A
#920000
0!
0I
1B
#930000
1!
1I
0B
1K
1N
0L
0J
1A
0Q
0O
1T
0R
1U
#940000
0!
0I
1B
#950000
1!
1I
0B
1V
0S
0P
0M
0K
0W
0U
0T
1R
1Q
1O
0N
1J
1=
0>
0?
0@
0A
1Z
0X
1W
1U
0R
0O
1[
0Z
1X
0[
#960000
0!
0I
1B
#970000
1!
1I
0B
1K
1L
0J
1A
#980000
0!
0I
1B
#990000
1!
1I
0B
1M
0K
1J
1@
0A
